// Jest Snapshot v1, https://goo.gl/fbAQLP

exports[`should display a success message when an article was successfully submitted 1`] = `
<span>
  Published! 
  <Link
    replace={false}
    title="View your article's public page"
    to="/article/arbitrary_id"
  >
    Give it a look.
  </Link>
</span>
`;

exports[`should display a success message when the article details were successfully saved 1`] = `
<span>
  Saved!
</span>
`;

exports[`should display an error when the article's details could not be loaded 1`] = `
<BareArticleManagementPage
  match={
    Object {
      "params": Object {
        "articleId": "arbitrary_id",
      },
      "url": "https://arbitrary_url",
    }
  }
  onUpdate={[MockFunction]}
>
  <div>
    <section
      className="hero is-medium is-dark"
    >
      <div
        className="hero-body"
      >
        <div
          className="container"
        >
          <h1
            className="title"
          >
            Article settings
            <PageMetadata
              title="Article settings"
              url="https://arbitrary_url"
            >
              <HelmetWrapper
                defer={true}
                encodeSpecialCharacters={true}
              >
                <SideEffect(NullComponent)
                  defer={true}
                  encodeSpecialCharacters={true}
                  meta={
                    Array [
                      Object {
                        "content": "https://arbitrary_url",
                        "name": "og:url",
                      },
                      Object {
                        "content": "Article settings | Flockademic (beta)",
                        "name": "og:title",
                      },
                      Object {
                        "content": "Article settings | Flockademic (beta)",
                        "name": "twitter:title",
                      },
                      Object {
                        "content": "website",
                        "name": "og:type",
                      },
                      Object {
                        "content": "summary",
                        "name": "twitter:card",
                      },
                      Object {
                        "content": "@Flockademic",
                        "name": "twitter:site",
                      },
                    ]
                  }
                  title="Article settings | Flockademic (beta)"
                  titleAttributes={Object {}}
                >
                  <NullComponent
                    defer={true}
                    encodeSpecialCharacters={true}
                    meta={
                      Array [
                        Object {
                          "content": "https://arbitrary_url",
                          "name": "og:url",
                        },
                        Object {
                          "content": "Article settings | Flockademic (beta)",
                          "name": "og:title",
                        },
                        Object {
                          "content": "Article settings | Flockademic (beta)",
                          "name": "twitter:title",
                        },
                        Object {
                          "content": "website",
                          "name": "og:type",
                        },
                        Object {
                          "content": "summary",
                          "name": "twitter:card",
                        },
                        Object {
                          "content": "@Flockademic",
                          "name": "twitter:site",
                        },
                      ]
                    }
                    title="Article settings | Flockademic (beta)"
                    titleAttributes={Object {}}
                  />
                </SideEffect(NullComponent)>
              </HelmetWrapper>
            </PageMetadata>
          </h1>
        </div>
      </div>
    </section>
    <section
      className="section"
    >
      <div
        className="container"
      >
        <div
          className="message is-warning content"
        >
          <div
            className="message-body"
          >
            This article could not be found. Would you like to go 
            <Link
              replace={false}
              title="Flockademic homepage"
              to="/"
            >
              <a
                onClick={[Function]}
                title="Flockademic homepage"
              >
                back to the Flockademic homepage?
              </a>
            </Link>
          </div>
        </div>
      </div>
    </section>
  </div>
</BareArticleManagementPage>
`;

exports[`should display the configuration form when the article details are loaded 1`] = `
<BareArticleManagementPage
  match={
    Object {
      "params": Object {
        "articleId": "arbitrary_id",
      },
      "url": "https://arbitrary_url",
    }
  }
  onUpdate={[MockFunction]}
>
  <div>
    <section
      className="hero is-medium is-dark"
    >
      <div
        className="hero-body"
      >
        <div
          className="container"
        >
          <h1
            className="title"
          >
            Article settings
            <PageMetadata
              title="Article settings"
              url="https://arbitrary_url"
            >
              <HelmetWrapper
                defer={true}
                encodeSpecialCharacters={true}
              >
                <SideEffect(NullComponent)
                  defer={true}
                  encodeSpecialCharacters={true}
                  meta={
                    Array [
                      Object {
                        "content": "https://arbitrary_url",
                        "name": "og:url",
                      },
                      Object {
                        "content": "Article settings | Flockademic (beta)",
                        "name": "og:title",
                      },
                      Object {
                        "content": "Article settings | Flockademic (beta)",
                        "name": "twitter:title",
                      },
                      Object {
                        "content": "website",
                        "name": "og:type",
                      },
                      Object {
                        "content": "summary",
                        "name": "twitter:card",
                      },
                      Object {
                        "content": "@Flockademic",
                        "name": "twitter:site",
                      },
                    ]
                  }
                  title="Article settings | Flockademic (beta)"
                  titleAttributes={Object {}}
                >
                  <NullComponent
                    defer={true}
                    encodeSpecialCharacters={true}
                    meta={
                      Array [
                        Object {
                          "content": "https://arbitrary_url",
                          "name": "og:url",
                        },
                        Object {
                          "content": "Article settings | Flockademic (beta)",
                          "name": "og:title",
                        },
                        Object {
                          "content": "Article settings | Flockademic (beta)",
                          "name": "twitter:title",
                        },
                        Object {
                          "content": "website",
                          "name": "og:type",
                        },
                        Object {
                          "content": "summary",
                          "name": "twitter:card",
                        },
                        Object {
                          "content": "@Flockademic",
                          "name": "twitter:site",
                        },
                      ]
                    }
                    title="Article settings | Flockademic (beta)"
                    titleAttributes={Object {}}
                  />
                </SideEffect(NullComponent)>
              </HelmetWrapper>
            </PageMetadata>
          </h1>
        </div>
      </div>
    </section>
    <div
      className="container"
    >
      <div
        className="columns"
      >
        <div
          className="column is-half-widescreen"
        >
          <section
            className="section"
          >
            <form
              className="details-update-form"
              onSubmit={[Function]}
            >
              <h3
                className="title is-3"
              >
                Details
              </h3>
              <div
                className="field"
              >
                <label
                  className="label"
                  htmlFor="scholarlyArticleName"
                >
                  Article title
                </label>
                <div
                  className="control"
                >
                  <input
                    className="input"
                    id="scholarlyArticleName"
                    name="name"
                    onChange={[Function]}
                    placeholder="Article title"
                    value="Some article name"
                  />
                </div>
              </div>
              <div
                className="field"
              >
                <label
                  className="label"
                  htmlFor="scholarlyArticleDescription"
                >
                  Abstract
                </label>
                <div
                  className="control"
                >
                  <textarea
                    className="textarea"
                    id="scholarlyArticleDescription"
                    name="description"
                    onChange={[Function]}
                    placeholder="Abstract"
                    value=""
                  />
                </div>
              </div>
              <div
                className="field is-grouped is-grouped-right"
              >
                <div
                  className="control"
                >
                  <Link
                    className="button is-text"
                    replace={false}
                    to="/article/arbitrary_id"
                  >
                    <a
                      className="button is-text"
                      onClick={[Function]}
                    >
                      Cancel
                    </a>
                  </Link>
                </div>
                <div
                  className="control"
                >
                  <button
                    className="button is-link "
                    type="submit"
                  >
                    Save
                  </button>
                </div>
              </div>
            </form>
          </section>
          <section
            className="section"
          >
            <h3
              className="title is-3"
            >
              Document
            </h3>
            <FileManager
              articleId="arbitrary_id"
              files={Array []}
              onUpload={[Function]}
            >
              <div>
                <form
                  onSubmit={[Function]}
                >
                  <div
                    className="field"
                  >
                    <div
                      className="file is-fullwidth has-name"
                    >
                      <label
                        className="file-label"
                      >
                        <input
                          accept="application/pdf"
                          className="file-input"
                          name="article"
                          onChange={[Function]}
                          type="file"
                        />
                        <span
                          className="file-cta"
                        >
                          <span
                            className="file-icon"
                          >
                            <img
                              alt=""
                              src={Object {}}
                            />
                          </span>
                          <span
                            className="file-label"
                          >
                            Select a PDF file…
                          </span>
                        </span>
                        <span
                          className="file-name"
                        />
                      </label>
                    </div>
                  </div>
                  <div
                    className="field"
                  >
                    <div
                      className="control"
                    >
                      <label
                        className="checkbox"
                      >
                        <input
                          onChange={[Function]}
                          type="checkbox"
                        />
                          I want to make this document public under a 
                        <OutboundLink
                          eventLabel="cc-license"
                          onClick={null}
                          rel="license"
                          target={null}
                          title="View the full terms of the license"
                          to="https://creativecommons.org/licenses/by/4.0/"
                        />
                        , and have the rights to do so.
                      </label>
                    </div>
                  </div>
                  <div
                    className="field is-grouped is-grouped-right"
                  >
                    <div
                      className="control"
                    >
                      <button
                        className="button is-link "
                        disabled={true}
                        type="submit"
                      >
                        Upload
                      </button>
                    </div>
                  </div>
                </form>
              </div>
            </FileManager>
          </section>
        </div>
        <div
          className="column is-one-third-widescreen is-offset-one-fifth-widescreen"
        >
          <aside
            className="section content"
          >
            <form
              className="notification publication-form"
              onSubmit={[Function]}
            >
              <h3
                className="title"
              >
                This article has not yet been published
              </h3>
              <p>
                Only you can view this article. You can submit it for publication after completing the following steps:
              </p>
              <ul
                className="publicationProgress"
              >
                <li
                  className="publicationProgress__todo"
                  id="detailsTodo"
                >
                  Provide your article title and abstract
                </li>
                <li
                  className="publicationProgress__todo"
                  id="uploadTodo"
                >
                  Upload your article
                </li>
                <li
                  className="publicationProgress__todo"
                  id="accountTodo"
                >
                  <withRouter(Connect(BareOrcidButton))>
                    <Route
                      render={[Function]}
                    />
                  </withRouter(Connect(BareOrcidButton))>
                </li>
              </ul>
              <button
                className="button is-primary "
                disabled={true}
                type="submit"
              >
                Make public
              </button>
            </form>
          </aside>
        </div>
      </div>
    </div>
  </div>
</BareArticleManagementPage>
`;
